{
	"name": "PageSummary",
	"author": [ "Yiannis Giannelos", "Febin Bellamy" ],
	"descriptionmsg": "pagesummary-desc",
	"license-name": "GPL-2.0-or-later",
	"requires": {
		"MediaWiki": ">= 1.42.0"
	},
	"AutoloadNamespaces": {
		"MediaWiki\\Extension\\PageSummary\\": "src/"
	},
	"MessagesDirs": {
		"PageSummary": [ "i18n" ]
	},
	"RestRoutes": [
		{
			"path": "/v1/summary/{title}",
			"class": "MediaWiki\\Extension\\PageSummary\\RestHandler",
			"method": "GET"
		}
	],
	"manifest_version": 2
}
